{
    "nodeAddr":     "localhost",
    "gethPort":     8545,
    "startBlock":   0,
    "endBlock":     "latest",
    "quiet":        true,
    "syncAll":      true,
    "patch":        true,
    "patchBlocks":  100,
    "settings": {
        "symbol": "GENOM",
        "name": "Genom",
        "title": "Genom Block Explorer",
        "author": "Gy9vin",
        "rss": "https://genom.tech",
        "github": "https://github.com/genom-project",
        "twitter": "https://twitter.com/genom_tech",
        "copyright": "2018 © Genom"
    }
}
